NOAA quarto simple - Percent Cover of Benthic Functional Groups
…
Percent Cover of Benthic Functional Groups

    Author

             JJH 

rpn_2016_main2

# A tibble: 6,480 × 7
   location depth photo group            successes failures cover
   <fct>    <fct> <chr> <fct>                <int>    <int> <dbl>
 1 ana      dp    t1_1  abiotic                  1       99  0.01
 2 ana      dp    t1_1  macro                   17       83  0.17
 3 ana      dp    t1_1  non_reef                 9       91  0.09
 4 ana      dp    t1_1  plob                    62       38  0.62
 5 ana      dp    t1_1  turf                    11       89  0.11
 6 ana      dp    t1_1  poci                     0      100  0   
 7 ana      dp    t1_1  cca                      0      100  0   
 8 ana      dp    t1_1  biotic                   0      100  0   
 9 ana      dp    t1_1  hard_coral_other         0      100  0   
10 ana      dp    t1_10 abiotic                  0      100  0   
# … with 6,470 more rows
rpn_2016_main.plob <- 
  rpn_2016_main2 %>%
  filter(group == "plob") %>%
  mutate(transect = case_when(
    startsWith(photo, "t1_") ~ "transect1",
    startsWith(photo, "t2_") ~ "transect2",
    startsWith(photo, "t3_") ~ "transect3",
    startsWith(photo, "t4_") ~ "transect4"
  )
) %>%
  mutate_at(vars(location, group, transect), factor)

rpn_2016_main.plob

# A tibble: 720 × 8
   location depth photo group successes failures cover transect 
   <fct>    <fct> <chr> <fct>     <int>    <int> <dbl> <fct>    
 1 ana      dp    t1_1  plob         62       38  0.62 transect1
 2 ana      dp    t1_10 plob         57       43  0.57 transect1
 3 ana      dp    t1_11 plob         83       17  0.83 transect1
 4 ana      dp    t1_12 plob         55       45  0.55 transect1
 5 ana      dp    t1_13 plob         66       34  0.66 transect1
 6 ana      dp    t1_14 plob         81       19  0.81 transect1
 7 ana      dp    t1_15 plob         67       33  0.67 transect1
 8 ana      dp    t1_2  plob         75       25  0.75 transect1
 9 ana      dp    t1_3  plob         60       40  0.6  transect1
10 ana      dp    t1_4  plob         75       25  0.75 transect1
# … with 710 more rows
…
